---
http_interactions:
- request:
    method: get
    uri: http://api.glitch.com/simple/achievements.listAll
    body:
      encoding: US-ASCII
      string: ''
    headers:
      connection:
      - close
  response:
    status:
      code: 200
      message: OK
    headers:
      access-control-allow-credentials:
      - 'false'
      access-control-allow-methods:
      - POST, GET, OPTIONS
      access-control-allow-origin:
      - ! '*'
      access-control-max-age:
      - '1728000'
      cache-control:
      - no-cache="set-cookie"
      content-type:
      - text/plain; charset=utf-8
      date:
      - Tue, 22 May 2012 05:10:04 GMT
      server:
      - Apache/2.2.17
      set-cookie:
      - AWSELB=F7715B6B10BD5947A6E9DAE19D6F6DD7D91A271FB7C65A13E6B150AA38A20996585FE1291DCF151568D701ED5E98FEE24FF052B412CF84A57C93B1B6B2555103165F28F773;PATH=/;MAX-AGE=600
      content-length:
      - '3784'
      connection:
      - Close
    body:
      encoding: US-ASCII
      string: ! '{"ok":1,"pages":52,"per_page":10,"page":1,"total":511,"items":{"1star_cuisinartist":{"name":"1-Star
        Cuisinartist","desc":"Whipped up 11 meals with an Awesome Pot","url":"http:\/\/www.glitch.com\/achievements\/1star-cuisinartist\/","image_60":"http:\/\/c2.glitch.bz\/achievements\/2011-05-09\/1star_cuisinartist_1304983461_60.png","image_180":"http:\/\/c2.glitch.bz\/achievements\/2011-05-09\/1star_cuisinartist_1304983461_180.png"},"2star_cuisinartist":{"name":"2-Star
        Cuisinartist","desc":"Whipped up 23 meals with an Awesome Pot","url":"http:\/\/www.glitch.com\/achievements\/2star-cuisinartist\/","image_60":"http:\/\/c2.glitch.bz\/achievements\/2011-05-09\/2star_cuisinartist_1304983466_60.png","image_180":"http:\/\/c2.glitch.bz\/achievements\/2011-05-09\/2star_cuisinartist_1304983466_180.png"},"2nd_rate_piggy_piggy_hash_slinger":{"name":"2nd
        Rate Piggy Piggy Hash Slinger","desc":"Fed 23 little Piglets until they grew
        up into Piggies","url":"http:\/\/www.glitch.com\/achievements\/2nd-rate-piggy-piggy-hash-slinger\/","image_60":"http:\/\/c2.glitch.bz\/achievements\/2011-05-09\/2nd_rate_piggy_piggy_hash_slinger_1304984245_60.png","image_180":"http:\/\/c2.glitch.bz\/achievements\/2011-05-09\/2nd_rate_piggy_piggy_hash_slinger_1304984245_180.png"},"3star_cuisinartist":{"name":"3-Star
        Cuisinartist","desc":"Whipped up 41 meals with an Awesome Pot","url":"http:\/\/www.glitch.com\/achievements\/3star-cuisinartist\/","image_60":"http:\/\/c2.glitch.bz\/achievements\/2011-05-09\/3star_cuisinartist_1304983472_60.png","image_180":"http:\/\/c2.glitch.bz\/achievements\/2011-05-09\/3star_cuisinartist_1304983472_180.png"},"3rd_rate_piggy_hash_slinger":{"name":"3rd
        Rate Piggy Hash Slinger","desc":"Fed 3 little Piglets until they grew up into
        Piggies","url":"http:\/\/www.glitch.com\/achievements\/3rd-rate-piggy-hash-slinger\/","image_60":"http:\/\/c2.glitch.bz\/achievements\/2011-05-09\/3rd_rate_piggy_hash_slinger_1304984240_60.png","image_180":"http:\/\/c2.glitch.bz\/achievements\/2011-05-09\/3rd_rate_piggy_hash_slinger_1304984240_180.png"},"4star_cuisinartist":{"name":"4-Star
        Cuisinartist","desc":"Whipped up 79 meals with an Awesome Pot","url":"http:\/\/www.glitch.com\/achievements\/4star-cuisinartist\/","image_60":"http:\/\/c2.glitch.bz\/achievements\/2011-05-09\/4star_cuisinartist_1304983478_60.png","image_180":"http:\/\/c2.glitch.bz\/achievements\/2011-05-09\/4star_cuisinartist_1304983478_180.png"},"5star_cuisinartist":{"name":"5-Star
        Cuisinartist","desc":"Whipped up 101 meals with an Awesome Pot","url":"http:\/\/www.glitch.com\/achievements\/5star-cuisinartist\/","image_60":"http:\/\/c2.glitch.bz\/achievements\/2011-09-13\/5star_cuisinartist_1315979183_60.png","image_180":"http:\/\/c2.glitch.bz\/achievements\/2011-09-13\/5star_cuisinartist_1315979183_180.png"},"a1_comrade":{"name":"A-1
        Comrade","desc":"Made 79 friends","url":"http:\/\/www.glitch.com\/achievements\/a1-comrade\/","image_60":"http:\/\/c2.glitch.bz\/achievements\/2011-09-14\/a1_comrade_1316061695_60.png","image_180":"http:\/\/c2.glitch.bz\/achievements\/2011-09-14\/a1_comrade_1316061695_180.png"},"a1_saucier":{"name":"A-1
        Saucier","desc":"Simmered 137 concoctions in a Saucepan","url":"http:\/\/www.glitch.com\/achievements\/a1-saucier\/","image_60":"http:\/\/c2.glitch.bz\/achievements\/2011-05-09\/a1_saucier_1304983456_60.png","image_180":"http:\/\/c2.glitch.bz\/achievements\/2011-05-09\/a1_saucier_1304983456_180.png"},"able_chopper":{"name":"Able
        Chopper","desc":"Minced, chopped and hacked 11 recipes with a Knife & Board.","url":"http:\/\/www.glitch.com\/achievements\/able-chopper\/","image_60":"http:\/\/c2.glitch.bz\/achievements\/2011-05-09\/able_chopper_1304983354_60.png","image_180":"http:\/\/c2.glitch.bz\/achievements\/2011-05-09\/able_chopper_1304983354_180.png"}}}'
    http_version: '1.1'
  recorded_at: Tue, 22 May 2012 05:10:04 GMT
recorded_with: VCR 2.1.1
